{
	"info": {
		"_postman_id": "79c4abc1-f20c-439d-bc16-619a1f525b78",
		"name": "record-linking.postman",
		"schema": "https://schema.getpostman.com/json/collection/v2.1.0/collection.json"
	},
	"item": [
		{
			"name": "GET default route",
			"request": {
				"method": "GET",
				"header": [],
				"url": {
					"raw": "http://localhost:8080/",
					"protocol": "http",
					"host": [
						"localhost"
					],
					"port": "8080",
					"path": [
						""
					]
				}
			},
			"response": []
		},
		{
			"name": "GET programs",
			"request": {
				"method": "GET",
				"header": [],
				"url": {
					"raw": "http://localhost:8080/programs/",
					"protocol": "http",
					"host": [
						"localhost"
					],
					"port": "8080",
					"path": [
						"programs",
						""
					]
				}
			},
			"response": []
		},
		{
			"name": "GET search programs",
			"request": {
				"method": "GET",
				"header": [],
				"url": {
					"raw": "http://localhost:8080/programs/search?name=GST/HST",
					"protocol": "http",
					"host": [
						"localhost"
					],
					"port": "8080",
					"path": [
						"programs",
						"search"
					],
					"query": [
						{
							"key": "name",
							"value": "GST/HST"
						}
					]
				}
			},
			"response": []
		},
		{
			"name": "GET program by id",
			"request": {
				"method": "GET",
				"header": [],
				"url": {
					"raw": "http://localhost:8080/programs/5/",
					"protocol": "http",
					"host": [
						"localhost"
					],
					"port": "8080",
					"path": [
						"programs",
						"5",
						""
					]
				}
			},
			"response": []
		},
		{
			"name": "POST program (add)",
			"request": {
				"method": "POST",
				"header": [
					{
						"key": "Content-Type",
						"name": "Content-Type",
						"value": "application/json",
						"type": "text"
					}
				],
				"body": {
					"mode": "raw",
					"raw": "{ \"name\": \"new-program\" }"
				},
				"url": {
					"raw": "http://localhost:8080/programs/",
					"protocol": "http",
					"host": [
						"localhost"
					],
					"port": "8080",
					"path": [
						"programs",
						""
					]
				}
			},
			"response": []
		}
	]
}